{
  "$schema": "http://json.schemastore.org/launchsettings.json",
  "profiles": {
    "Gateway": {
      "commandName": "Project",
      "launchBrowser": true,
      "applicationUrl": "http://localhost:5000"
    }
  }
}